{
  "images" : [
    {
      "idiom" : "universal",
      "filename" : "img_ground_prop_barrel_01.png"
    }
  ],
  "info" : {
    "version" : 1,
    "author" : "xcode"
  },
  "properties" : {
    "compression-type" : "gpu-optimized-smallest"
  }
}